{
	"capteurs": [
		{
			"capteurExt": [
				{
					"0": "Banquise en vue !",
					"35": "Hot Hot Hot !"
				}
			],
			"capteurInt": [
				{
					"0": "Canalisations gelées, appelez SOS plombier et mettez un bonnet !",
					"12": "Montez le chauffage ou mettez un gros pull  !",
					"22": "Baissez le chauffage !",
					"50": "Appelez les pompiers ou arrêtez votre barbecue !"
				}
			],
            "batterie": [
                {
                    "0": "Plus de batterie, veuillez recharger.",
                    "25": "Attention, moins de 25% de batterie, recharger le plus vite possible !",
                    "50": "Moitié de la batterie.",
                    "75": "Batterie bien chargée.",
                    "100": "Batterie rechargée au maximum."
                }
            ]
		}
	]
}